\relax 
\providecommand\hyper@newdestlabel[2]{}
\bibstyle{biblatex}
\bibdata{main-blx,bibliography/literature}
\citation{biblatex-control}
\providecommand\HyperFirstAtBeginDocument{\AtBeginDocument}
\HyperFirstAtBeginDocument{\ifx\hyper@anchor\@undefined
\global\let\oldcontentsline\contentsline
\gdef\contentsline#1#2#3#4{\oldcontentsline{#1}{#2}{#3}}
\global\let\oldnewlabel\newlabel
\gdef\newlabel#1#2{\newlabelxx{#1}#2}
\gdef\newlabelxx#1#2#3#4#5#6{\oldnewlabel{#1}{{#2}{#3}}}
\AtEndDocument{\ifx\hyper@anchor\@undefined
\let\contentsline\oldcontentsline
\let\newlabel\oldnewlabel
\fi}
\fi}
\global\let\hyper@last\relax 
\gdef\HyperFirstAtBeginDocument#1{#1}
\providecommand\HyField@AuxAddToFields[1]{}
\providecommand\HyField@AuxAddToCoFields[2]{}
\providecommand\@newglossary[4]{}
\@newglossary{main}{glg}{gls}{glo}
\@newglossary{acronym}{alg}{acr}{acn}
\providecommand\@glsorder[1]{}
\providecommand\@istfilename[1]{}
\@istfilename{main.ist}
\@glsorder{word}
\@writefile{toc}{\boolfalse {citerequest}\boolfalse {citetracker}\boolfalse {pagetracker}\boolfalse {backtracker}\relax }
\@writefile{lof}{\boolfalse {citerequest}\boolfalse {citetracker}\boolfalse {pagetracker}\boolfalse {backtracker}\relax }
\@writefile{lot}{\boolfalse {citerequest}\boolfalse {citetracker}\boolfalse {pagetracker}\boolfalse {backtracker}\relax }
\select@language{american}
\@writefile{toc}{\defcounter {refsection}{0}\relax }\@writefile{toc}{\select@language{american}}
\@writefile{lof}{\defcounter {refsection}{0}\relax }\@writefile{lof}{\select@language{american}}
\@writefile{lot}{\defcounter {refsection}{0}\relax }\@writefile{lot}{\select@language{american}}
\@writefile{lol}{\defcounter {refsection}{0}\relax }\@writefile{lol}{\select@language{american}}
\@writefile{loa}{\defcounter {refsection}{0}\relax }\@writefile{loa}{\select@language{american}}
\@writefile{toc}{\defcounter {refsection}{0}\relax }\@writefile{toc}{\contentsline {chapter}{\nonumberline Abstract}{i}{chapter*.1}}
\@writefile{lof}{\defcounter {refsection}{0}\relax }\@writefile{lof}{\addvspace {10\p@ }}
\@writefile{lot}{\defcounter {refsection}{0}\relax }\@writefile{lot}{\addvspace {10\p@ }}
\@writefile{lol}{\defcounter {refsection}{0}\relax }\@writefile{lol}{\addvspace {10\p@ }}
\@writefile{loa}{\defcounter {refsection}{0}\relax }\@writefile{loa}{\addvspace {10\p@ }}
\citation{Knight:2002:SCS:581339.581406}
\citation{SAFE_D333b}
\citation{Hoelzl10autofocustool}
\citation{6601578}
\@writefile{toc}{\defcounter {refsection}{0}\relax }\@writefile{toc}{\contentsline {chapter}{\numberline {1}Introduction}{1}{chapter.1}}
\@writefile{lof}{\defcounter {refsection}{0}\relax }\@writefile{lof}{\addvspace {10\p@ }}
\@writefile{lot}{\defcounter {refsection}{0}\relax }\@writefile{lot}{\addvspace {10\p@ }}
\@writefile{lol}{\defcounter {refsection}{0}\relax }\@writefile{lol}{\addvspace {10\p@ }}
\@writefile{loa}{\defcounter {refsection}{0}\relax }\@writefile{loa}{\addvspace {10\p@ }}
\newlabel{chapter:introduction}{{1}{1}{Introduction}{chapter.1}{}}
\@writefile{toc}{\defcounter {refsection}{0}\relax }\@writefile{toc}{\contentsline {section}{\numberline {1.1}Background}{1}{section.1.1}}
\citation{SAFE_D333b}
\@writefile{toc}{\defcounter {refsection}{0}\relax }\@writefile{toc}{\contentsline {section}{\numberline {1.2}Problem Statement}{2}{section.1.2}}
\citation{Kang:2010:AED:2023011.2023014}
\citation{5577992}
\citation{NeemaSztipanovitsKarsai03_ConstraintBasedDesignSpaceExplorationModelSynthesis}
\citation{6601578}
\citation{6903157}
\citation{Schatz:2015:ADE:2744769.2747912}
\citation{SAFE_D44b}
\@writefile{toc}{\defcounter {refsection}{0}\relax }\@writefile{toc}{\contentsline {section}{\numberline {1.3}Related Work}{3}{section.1.3}}
\@writefile{toc}{\defcounter {refsection}{0}\relax }\@writefile{toc}{\contentsline {section}{\numberline {1.4}Organization of thesis}{3}{section.1.4}}
\citation{6869555}
\citation{part1}
\@writefile{toc}{\defcounter {refsection}{0}\relax }\@writefile{toc}{\contentsline {chapter}{\numberline {2}Theoretical Background}{5}{chapter.2}}
\@writefile{lof}{\defcounter {refsection}{0}\relax }\@writefile{lof}{\addvspace {10\p@ }}
\@writefile{lot}{\defcounter {refsection}{0}\relax }\@writefile{lot}{\addvspace {10\p@ }}
\@writefile{lol}{\defcounter {refsection}{0}\relax }\@writefile{lol}{\addvspace {10\p@ }}
\@writefile{loa}{\defcounter {refsection}{0}\relax }\@writefile{loa}{\addvspace {10\p@ }}
\newlabel{chapter:theoretical_background}{{2}{5}{Theoretical Background}{chapter.2}{}}
\@writefile{toc}{\defcounter {refsection}{0}\relax }\@writefile{toc}{\contentsline {section}{\numberline {2.1}ISO 26262}{5}{section.2.1}}
\@writefile{toc}{\defcounter {refsection}{0}\relax }\@writefile{toc}{\contentsline {subsection}{\numberline {2.1.1}Different parts of ISO 26262}{5}{subsection.2.1.1}}
\citation{part3}
\@writefile{lof}{\defcounter {refsection}{0}\relax }\@writefile{lof}{\contentsline {figure}{\numberline {\relax 2.1}{\ignorespaces Overall structure of IS0 26262 \relax }}{6}{figure.caption.3}}
\providecommand*\caption@xref[2]{\@setref\relax\@undefined{#1}}
\newlabel{iso26262}{{\relax 2.1}{6}{Overall structure of IS0 26262 \relax }{figure.caption.3}{}}
\citation{part5}
\citation{part6}
\@writefile{toc}{\defcounter {refsection}{0}\relax }\@writefile{toc}{\contentsline {subsection}{\numberline {2.1.2}Vocabulary}{8}{subsection.2.1.2}}
\@writefile{lof}{\defcounter {refsection}{0}\relax }\@writefile{lof}{\contentsline {figure}{\numberline {\relax 2.2}{\ignorespaces Bathtub curve for failure rate \relax }}{8}{figure.caption.4}}
\newlabel{bathtub}{{\relax 2.2}{8}{Bathtub curve for failure rate \relax }{figure.caption.4}{}}
\citation{SAFE_D333b}
\citation{part5}
\@writefile{lof}{\defcounter {refsection}{0}\relax }\@writefile{lof}{\contentsline {figure}{\numberline {\relax 2.3}{\ignorespaces ISO 26262 failure modes classification \relax }}{9}{figure.caption.5}}
\newlabel{failuremodes}{{\relax 2.3}{9}{ISO 26262 failure modes classification \relax }{figure.caption.5}{}}
\citation{SAFE_D333b}
\citation{SAFE_D333b}
\@writefile{toc}{\defcounter {refsection}{0}\relax }\@writefile{toc}{\contentsline {subsection}{\numberline {2.1.3}Safety metrics in ISO 26262}{10}{subsection.2.1.3}}
\citation{Dittel:2010:SSC:1886301.1886311}
\citation{fta_nasa}
\@writefile{toc}{\defcounter {refsection}{0}\relax }\@writefile{toc}{\contentsline {subsection}{\numberline {2.1.4}Safety Analysis methods in ISO 26262}{11}{subsection.2.1.4}}
\@writefile{lof}{\defcounter {refsection}{0}\relax }\@writefile{lof}{\contentsline {figure}{\numberline {\relax 2.4}{\ignorespaces Directed analysis \relax }}{11}{figure.caption.6}}
\newlabel{directedanalysis}{{\relax 2.4}{11}{Directed analysis \relax }{figure.caption.6}{}}
\citation{SAFE_D333b}
\citation{part5}
\@writefile{toc}{\defcounter {refsection}{0}\relax }\@writefile{toc}{\contentsline {subsection}{\numberline {2.1.5}Evaluation of hardware architectural metrics}{12}{subsection.2.1.5}}
\newlabel{EHAM}{{2.1.5}{12}{Evaluation of hardware architectural metrics}{subsection.2.1.5}{}}
\@writefile{lof}{\defcounter {refsection}{0}\relax }\@writefile{lof}{\contentsline {figure}{\numberline {\relax 2.5}{\ignorespaces A simple fault tree \relax }}{13}{figure.caption.7}}
\newlabel{faulttree}{{\relax 2.5}{13}{A simple fault tree \relax }{figure.caption.7}{}}
\@writefile{lof}{\defcounter {refsection}{0}\relax }\@writefile{lof}{\contentsline {figure}{\numberline {\relax 2.6}{\ignorespaces Hardware architecture view \relax }}{14}{figure.caption.8}}
\newlabel{componentview}{{\relax 2.6}{14}{Hardware architecture view \relax }{figure.caption.8}{}}
\@writefile{lot}{\defcounter {refsection}{0}\relax }\@writefile{lot}{\contentsline {table}{\numberline {\relax 2.1}{\ignorespaces Target values for hardware architectural metrics\relax }}{15}{table.caption.9}}
\newlabel{table:1}{{\relax 2.1}{15}{Target values for hardware architectural metrics\relax }{table.caption.9}{}}
\citation{part6}
\@writefile{toc}{\defcounter {refsection}{0}\relax }\@writefile{toc}{\contentsline {subsection}{\numberline {2.1.6}Evaluation of residual risk of safety goal violation}{16}{subsection.2.1.6}}
\@writefile{lof}{\defcounter {refsection}{0}\relax }\@writefile{lof}{\contentsline {figure}{\numberline {\relax 2.7}{\ignorespaces Deductive tree analysis for calculating PMHF \relax }}{17}{figure.caption.10}}
\newlabel{andor}{{\relax 2.7}{17}{Deductive tree analysis for calculating PMHF \relax }{figure.caption.10}{}}
\citation{Broy:2001:SDI:374869}
\citation{Holzl:2007:AST:1927558.1927576}
\@writefile{lot}{\defcounter {refsection}{0}\relax }\@writefile{lot}{\contentsline {table}{\numberline {\relax 2.2}{\ignorespaces Target values for hardware architectural metrics\relax }}{18}{table.caption.11}}
\newlabel{table:2}{{\relax 2.2}{18}{Target values for hardware architectural metrics\relax }{table.caption.11}{}}
\@writefile{toc}{\defcounter {refsection}{0}\relax }\@writefile{toc}{\contentsline {section}{\numberline {2.2}AutoFOCUS3}{18}{section.2.2}}
\@writefile{toc}{\defcounter {refsection}{0}\relax }\@writefile{toc}{\contentsline {subsection}{\numberline {2.2.1}Semantics}{18}{subsection.2.2.1}}
\citation{Holzl:2007:AST:1927558.1927576}
\citation{Holzl:2007:AST:1927558.1927576}
\@writefile{toc}{\defcounter {refsection}{0}\relax }\@writefile{toc}{\contentsline {subsection}{\numberline {2.2.2}Layers of abstraction}{19}{subsection.2.2.2}}
\citation{Holzl:2007:AST:1927558.1927576}
\citation{voss2012scheduling}
\citation{6601578}
\@writefile{lof}{\defcounter {refsection}{0}\relax }\@writefile{lof}{\contentsline {figure}{\numberline {\relax 2.8}{\ignorespaces A simple component architecture \relax }}{20}{figure.caption.12}}
\newlabel{LA}{{\relax 2.8}{20}{A simple component architecture \relax }{figure.caption.12}{}}
\@writefile{toc}{\defcounter {refsection}{0}\relax }\@writefile{toc}{\contentsline {subsection}{\numberline {2.2.3}Deployment and scheduling model of AutoFOCUS3}{20}{subsection.2.2.3}}
\newlabel{subsec: Dep&Sched}{{2.2.3}{20}{Deployment and scheduling model of AutoFOCUS3}{subsection.2.2.3}{}}
\citation{deb2001multi}
\@writefile{lof}{\defcounter {refsection}{0}\relax }\@writefile{lof}{\contentsline {figure}{\numberline {\relax 2.9}{\ignorespaces A simple technical architecture \relax }}{21}{figure.caption.13}}
\newlabel{TA}{{\relax 2.9}{21}{A simple technical architecture \relax }{figure.caption.13}{}}
\@writefile{toc}{\defcounter {refsection}{0}\relax }\@writefile{toc}{\contentsline {section}{\numberline {2.3}Multi-objective optimization}{21}{section.2.3}}
\citation{deb2001multi}
\citation{deb2001multi}
\@writefile{toc}{\defcounter {refsection}{0}\relax }\@writefile{toc}{\contentsline {section}{\numberline {2.4}Pareto-optimality}{22}{section.2.4}}
\citation{deb2001multi}
\@writefile{lof}{\defcounter {refsection}{0}\relax }\@writefile{lof}{\contentsline {figure}{\numberline {\relax 2.10}{\ignorespaces Decision space and objective space for Min-Ex problem \relax }}{23}{figure.caption.14}}
\newlabel{minexpf}{{\relax 2.10}{23}{Decision space and objective space for Min-Ex problem \relax }{figure.caption.14}{}}
\citation{247892}
\citation{DeMoura:2008:ZES:1792734.1792766}
\citation{van2008handbook}
\citation{DeMoura:2008:ZES:1792734.1792766}
\@writefile{toc}{\defcounter {refsection}{0}\relax }\@writefile{toc}{\contentsline {section}{\numberline {2.5}SMT Solver}{24}{section.2.5}}
\@writefile{toc}{\defcounter {refsection}{0}\relax }\@writefile{toc}{\contentsline {chapter}{\numberline {3}Phase I: DSE Of Safety Metrics And Resource Constraints}{25}{chapter.3}}
\@writefile{lof}{\defcounter {refsection}{0}\relax }\@writefile{lof}{\addvspace {10\p@ }}
\@writefile{lot}{\defcounter {refsection}{0}\relax }\@writefile{lot}{\addvspace {10\p@ }}
\@writefile{lol}{\defcounter {refsection}{0}\relax }\@writefile{lol}{\addvspace {10\p@ }}
\@writefile{loa}{\defcounter {refsection}{0}\relax }\@writefile{loa}{\addvspace {10\p@ }}
\newlabel{chapter:constraints}{{3}{25}{Phase I: DSE Of Safety Metrics And Resource Constraints}{chapter.3}{}}
\@writefile{toc}{\defcounter {refsection}{0}\relax }\@writefile{toc}{\contentsline {section}{\numberline {3.1}Safety metrics and deployment constraints}{25}{section.3.1}}
\citation{azevedo2014exploring}
\citation{azevedo2014exploring}
\@writefile{toc}{\defcounter {refsection}{0}\relax }\@writefile{toc}{\contentsline {subsection}{\numberline {3.1.1}PMHF Node Constraint}{26}{subsection.3.1.1}}
\@writefile{toc}{\defcounter {refsection}{0}\relax }\@writefile{toc}{\contentsline {subsection}{\numberline {3.1.2}PMHF Bus Constraint}{27}{subsection.3.1.2}}
\@writefile{toc}{\defcounter {refsection}{0}\relax }\@writefile{toc}{\contentsline {subsection}{\numberline {3.1.3}Memory Constraint}{27}{subsection.3.1.3}}
\@writefile{toc}{\defcounter {refsection}{0}\relax }\@writefile{toc}{\contentsline {subsection}{\numberline {3.1.4}Node usage Constraint}{28}{subsection.3.1.4}}
\@writefile{toc}{\defcounter {refsection}{0}\relax }\@writefile{toc}{\contentsline {subsection}{\numberline {3.1.5}Cost Constraint}{28}{subsection.3.1.5}}
\@writefile{toc}{\defcounter {refsection}{0}\relax }\@writefile{toc}{\contentsline {subsection}{\numberline {3.1.6}Energy Consumption Constraint}{29}{subsection.3.1.6}}
\@writefile{toc}{\defcounter {refsection}{0}\relax }\@writefile{toc}{\contentsline {section}{\numberline {3.2}Integration into AutoFOCUS3}{30}{section.3.2}}
\@writefile{lof}{\defcounter {refsection}{0}\relax }\@writefile{lof}{\contentsline {figure}{\numberline {\relax 3.1}{\ignorespaces Logical architecture of ACC system \relax }}{31}{figure.caption.15}}
\newlabel{la_acc}{{\relax 3.1}{31}{Logical architecture of ACC system \relax }{figure.caption.15}{}}
\@writefile{toc}{\defcounter {refsection}{0}\relax }\@writefile{toc}{\contentsline {subsection}{\numberline {3.2.1}Annotations}{31}{subsection.3.2.1}}
\@writefile{lof}{\defcounter {refsection}{0}\relax }\@writefile{lof}{\contentsline {figure}{\numberline {\relax 3.2}{\ignorespaces Technical architecture of ACC system \relax }}{32}{figure.caption.16}}
\newlabel{ta_acc}{{\relax 3.2}{32}{Technical architecture of ACC system \relax }{figure.caption.16}{}}
\@writefile{lof}{\defcounter {refsection}{0}\relax }\@writefile{lof}{\contentsline {figure}{\numberline {\relax 3.3}{\ignorespaces Annotation view for logical architecture of ACC system \relax }}{32}{figure.caption.17}}
\newlabel{acc_la_annot}{{\relax 3.3}{32}{Annotation view for logical architecture of ACC system \relax }{figure.caption.17}{}}
\@writefile{lof}{\defcounter {refsection}{0}\relax }\@writefile{lof}{\contentsline {figure}{\numberline {\relax 3.4}{\ignorespaces Annotation view for technical architecture of ACC system \relax }}{33}{figure.caption.18}}
\newlabel{acc_ta_annot}{{\relax 3.4}{33}{Annotation view for technical architecture of ACC system \relax }{figure.caption.18}{}}
\@writefile{toc}{\defcounter {refsection}{0}\relax }\@writefile{toc}{\contentsline {subsection}{\numberline {3.2.2}Aftermath of using new constraints on ACC model}{33}{subsection.3.2.2}}
\@writefile{lof}{\defcounter {refsection}{0}\relax }\@writefile{lof}{\contentsline {figure}{\numberline {\relax 3.5}{\ignorespaces Constraints integration into AUTOFOCUS3 \relax }}{34}{figure.caption.19}}
\newlabel{constraints_integration}{{\relax 3.5}{34}{Constraints integration into AUTOFOCUS3 \relax }{figure.caption.19}{}}
\@writefile{lot}{\defcounter {refsection}{0}\relax }\@writefile{lot}{\contentsline {table}{\numberline {\relax 3.1}{\ignorespaces Annotation values for logical architecture of ACC\relax }}{35}{table.caption.20}}
\newlabel{table:3}{{\relax 3.1}{35}{Annotation values for logical architecture of ACC\relax }{table.caption.20}{}}
\@writefile{lot}{\defcounter {refsection}{0}\relax }\@writefile{lot}{\contentsline {table}{\numberline {\relax 3.2}{\ignorespaces Annotation values for technical architecture of ACC\relax }}{35}{table.caption.21}}
\newlabel{table:4}{{\relax 3.2}{35}{Annotation values for technical architecture of ACC\relax }{table.caption.21}{}}
\@writefile{lot}{\defcounter {refsection}{0}\relax }\@writefile{lot}{\contentsline {table}{\numberline {\relax 3.3}{\ignorespaces Effect of PMHF node constraint\relax }}{35}{table.caption.22}}
\newlabel{table:5}{{\relax 3.3}{35}{Effect of PMHF node constraint\relax }{table.caption.22}{}}
\@writefile{lot}{\defcounter {refsection}{0}\relax }\@writefile{lot}{\contentsline {table}{\numberline {\relax 3.4}{\ignorespaces Effect of PMHF node constraint and PMHF bus constraint\relax }}{36}{table.caption.23}}
\newlabel{table:6}{{\relax 3.4}{36}{Effect of PMHF node constraint and PMHF bus constraint\relax }{table.caption.23}{}}
\citation{6601578}
\citation{6903157}
\@writefile{lot}{\defcounter {refsection}{0}\relax }\@writefile{lot}{\contentsline {table}{\numberline {\relax 3.5}{\ignorespaces Effect of PMHF node constraint, PMHF bus constraint and Memory constraint\relax }}{37}{table.caption.24}}
\newlabel{table:7}{{\relax 3.5}{37}{Effect of PMHF node constraint, PMHF bus constraint and Memory constraint\relax }{table.caption.24}{}}
\@writefile{toc}{\defcounter {refsection}{0}\relax }\@writefile{toc}{\contentsline {section}{\numberline {3.3}Use of SMT solvers to generate deployments}{38}{section.3.3}}
\@writefile{toc}{\defcounter {refsection}{0}\relax }\@writefile{toc}{\contentsline {section}{\numberline {3.4}UnSAT Cores}{43}{section.3.4}}
\@writefile{lof}{\defcounter {refsection}{0}\relax }\@writefile{lof}{\contentsline {figure}{\numberline {\relax 3.6}{\ignorespaces UnSAT core in case of memory constraint violation \relax }}{43}{figure.caption.25}}
\newlabel{unsat}{{\relax 3.6}{43}{UnSAT core in case of memory constraint violation \relax }{figure.caption.25}{}}
\@writefile{toc}{\defcounter {refsection}{0}\relax }\@writefile{toc}{\contentsline {chapter}{\numberline {4}Phase II: Pareto-Optimal Deployment Generation}{44}{chapter.4}}
\@writefile{lof}{\defcounter {refsection}{0}\relax }\@writefile{lof}{\addvspace {10\p@ }}
\@writefile{lot}{\defcounter {refsection}{0}\relax }\@writefile{lot}{\addvspace {10\p@ }}
\@writefile{lol}{\defcounter {refsection}{0}\relax }\@writefile{lol}{\addvspace {10\p@ }}
\@writefile{loa}{\defcounter {refsection}{0}\relax }\@writefile{loa}{\addvspace {10\p@ }}
\newlabel{chapter:safeTAG}{{4}{44}{Phase II: Pareto-Optimal Deployment Generation}{chapter.4}{}}
\@writefile{toc}{\defcounter {refsection}{0}\relax }\@writefile{toc}{\contentsline {section}{\numberline {4.1}A new MOO Algorithms}{45}{section.4.1}}
\@writefile{loa}{\defcounter {refsection}{0}\relax }\@writefile{loa}{\contentsline {algorithm}{\numberline {1}{\ignorespaces Lower Bounds\relax }}{46}{algorithm.1}}
\newlabel{alg:lowerbounds}{{1}{46}{Lower Bounds\relax }{algorithm.1}{}}
\citation{deb2001multi}
\@writefile{loa}{\defcounter {refsection}{0}\relax }\@writefile{loa}{\contentsline {algorithm}{\numberline {2}{\ignorespaces Valid Solutions\relax }}{48}{algorithm.2}}
\newlabel{alg:validsolutions}{{2}{48}{Valid Solutions\relax }{algorithm.2}{}}
\@writefile{toc}{\defcounter {refsection}{0}\relax }\@writefile{toc}{\contentsline {section}{\numberline {4.2}Integration into AutoFOCUS3}{49}{section.4.2}}
\@writefile{lof}{\defcounter {refsection}{0}\relax }\@writefile{lof}{\contentsline {figure}{\numberline {\relax 4.1}{\ignorespaces Pareto-optimal deployment generation criteria \relax }}{50}{figure.caption.26}}
\newlabel{pod}{{\relax 4.1}{50}{Pareto-optimal deployment generation criteria \relax }{figure.caption.26}{}}
\@writefile{lot}{\defcounter {refsection}{0}\relax }\@writefile{lot}{\contentsline {table}{\numberline {\relax 4.1}{\ignorespaces Valid deployments for ACC\relax }}{51}{table.caption.27}}
\newlabel{table:valid_dep_acc}{{\relax 4.1}{51}{Valid deployments for ACC\relax }{table.caption.27}{}}
\@writefile{lot}{\defcounter {refsection}{0}\relax }\@writefile{lot}{\contentsline {table}{\numberline {\relax 4.2}{\ignorespaces Pareto deployments for ACC\relax }}{51}{table.caption.28}}
\newlabel{table:pareto_dep_acc}{{\relax 4.2}{51}{Pareto deployments for ACC\relax }{table.caption.28}{}}
\@writefile{lof}{\defcounter {refsection}{0}\relax }\@writefile{lof}{\contentsline {figure}{\numberline {\relax 4.2}{\ignorespaces Scheduling view of Deployment 1 \relax }}{51}{figure.caption.29}}
\newlabel{sched_view_acc}{{\relax 4.2}{51}{Scheduling view of Deployment 1 \relax }{figure.caption.29}{}}
\citation{Knight:2002:SCS:581339.581406}
\@writefile{toc}{\defcounter {refsection}{0}\relax }\@writefile{toc}{\contentsline {chapter}{\numberline {5}Case Study And Results}{52}{chapter.5}}
\@writefile{lof}{\defcounter {refsection}{0}\relax }\@writefile{lof}{\addvspace {10\p@ }}
\@writefile{lot}{\defcounter {refsection}{0}\relax }\@writefile{lot}{\addvspace {10\p@ }}
\@writefile{lol}{\defcounter {refsection}{0}\relax }\@writefile{lol}{\addvspace {10\p@ }}
\@writefile{loa}{\defcounter {refsection}{0}\relax }\@writefile{loa}{\addvspace {10\p@ }}
\newlabel{chapter:results}{{5}{52}{Case Study And Results}{chapter.5}{}}
\@writefile{lof}{\defcounter {refsection}{0}\relax }\@writefile{lof}{\contentsline {figure}{\numberline {\relax 5.1}{\ignorespaces Logical architecture of Industrial-like use case\relax }}{52}{figure.caption.30}}
\newlabel{big_example_la}{{\relax 5.1}{52}{Logical architecture of Industrial-like use case\relax }{figure.caption.30}{}}
\@writefile{lot}{\defcounter {refsection}{0}\relax }\@writefile{lot}{\contentsline {table}{\numberline {\relax 5.1}{\ignorespaces ASIL levels of logical components of industry-like use case\relax }}{53}{table.caption.31}}
\newlabel{table:asil_big_example_la}{{\relax 5.1}{53}{ASIL levels of logical components of industry-like use case\relax }{table.caption.31}{}}
\@writefile{toc}{\defcounter {refsection}{0}\relax }\@writefile{toc}{\contentsline {section}{\numberline {5.1}Phase I Results}{53}{section.5.1}}
\@writefile{lot}{\defcounter {refsection}{0}\relax }\@writefile{lot}{\contentsline {table}{\numberline {\relax 5.2}{\ignorespaces Properties of technical architecture of Industry-like use case\relax }}{53}{table.caption.33}}
\newlabel{table:properties_big_example_ta}{{\relax 5.2}{53}{Properties of technical architecture of Industry-like use case\relax }{table.caption.33}{}}
\@writefile{lof}{\defcounter {refsection}{0}\relax }\@writefile{lof}{\contentsline {figure}{\numberline {\relax 5.2}{\ignorespaces Technical architecture of Industrial-like use case\relax }}{54}{figure.caption.32}}
\newlabel{big_example_ta}{{\relax 5.2}{54}{Technical architecture of Industrial-like use case\relax }{figure.caption.32}{}}
\@writefile{toc}{\defcounter {refsection}{0}\relax }\@writefile{toc}{\contentsline {subsection}{\numberline {5.1.1}Cost Constraint}{54}{subsection.5.1.1}}
\newlabel{5.1.1}{{5.1.1}{54}{Cost Constraint}{subsection.5.1.1}{}}
\citation{azevedo2014exploring}
\@writefile{lof}{\defcounter {refsection}{0}\relax }\@writefile{lof}{\contentsline {figure}{\numberline {\relax 5.3}{\ignorespaces Effect of Cost Constraint (non-uniform cost) on deployment (ASIL-D BUS)\relax }}{55}{figure.caption.34}}
\newlabel{result_1}{{\relax 5.3}{55}{Effect of Cost Constraint (non-uniform cost) on deployment (ASIL-D BUS)\relax }{figure.caption.34}{}}
\@writefile{lof}{\defcounter {refsection}{0}\relax }\@writefile{lof}{\contentsline {figure}{\numberline {\relax 5.4}{\ignorespaces Effect of Cost Constraint (uniform cost) on deployment (ASIL-D BUS)\relax }}{56}{figure.caption.35}}
\newlabel{result_2}{{\relax 5.4}{56}{Effect of Cost Constraint (uniform cost) on deployment (ASIL-D BUS)\relax }{figure.caption.35}{}}
\@writefile{lof}{\defcounter {refsection}{0}\relax }\@writefile{lof}{\contentsline {figure}{\numberline {\relax 5.5}{\ignorespaces Effect of Cost Constraint (non-uniform cost) on deployment (ASIL-C BUS)\relax }}{56}{figure.caption.36}}
\newlabel{result_3}{{\relax 5.5}{56}{Effect of Cost Constraint (non-uniform cost) on deployment (ASIL-C BUS)\relax }{figure.caption.36}{}}
\@writefile{lof}{\defcounter {refsection}{0}\relax }\@writefile{lof}{\contentsline {figure}{\numberline {\relax 5.6}{\ignorespaces Effect of Cost Constraint (uniform cost) on deployment (ASIL-C BUS)\relax }}{56}{figure.caption.37}}
\newlabel{result_4}{{\relax 5.6}{56}{Effect of Cost Constraint (uniform cost) on deployment (ASIL-C BUS)\relax }{figure.caption.37}{}}
\@writefile{toc}{\defcounter {refsection}{0}\relax }\@writefile{toc}{\contentsline {subsection}{\numberline {5.1.2}Node usage constraint}{57}{subsection.5.1.2}}
\newlabel{5.1.2}{{5.1.2}{57}{Node usage constraint}{subsection.5.1.2}{}}
\@writefile{lof}{\defcounter {refsection}{0}\relax }\@writefile{lof}{\contentsline {figure}{\numberline {\relax 5.7}{\ignorespaces Number of nodes constraint (ASIL-D Bus)\relax }}{57}{figure.caption.38}}
\newlabel{result_5}{{\relax 5.7}{57}{Number of nodes constraint (ASIL-D Bus)\relax }{figure.caption.38}{}}
\@writefile{lof}{\defcounter {refsection}{0}\relax }\@writefile{lof}{\contentsline {figure}{\numberline {\relax 5.8}{\ignorespaces Number of nodes constraint (ASIL-C Bus)\relax }}{58}{figure.caption.39}}
\newlabel{result_6}{{\relax 5.8}{58}{Number of nodes constraint (ASIL-C Bus)\relax }{figure.caption.39}{}}
\@writefile{toc}{\defcounter {refsection}{0}\relax }\@writefile{toc}{\contentsline {subsection}{\numberline {5.1.3}End-2-end latency vs cost}{58}{subsection.5.1.3}}
\newlabel{5.1.3}{{5.1.3}{58}{End-2-end latency vs cost}{subsection.5.1.3}{}}
\@writefile{lof}{\defcounter {refsection}{0}\relax }\@writefile{lof}{\contentsline {figure}{\numberline {\relax 5.9}{\ignorespaces E2E latency vs Cost\relax }}{58}{figure.caption.40}}
\newlabel{result_7}{{\relax 5.9}{58}{E2E latency vs Cost\relax }{figure.caption.40}{}}
\@writefile{toc}{\defcounter {refsection}{0}\relax }\@writefile{toc}{\contentsline {subsection}{\numberline {5.1.4}Bus load vs Cost}{59}{subsection.5.1.4}}
\newlabel{5.1.4}{{5.1.4}{59}{Bus load vs Cost}{subsection.5.1.4}{}}
\@writefile{lof}{\defcounter {refsection}{0}\relax }\@writefile{lof}{\contentsline {figure}{\numberline {\relax 5.10}{\ignorespaces Bus load vs Cost\relax }}{59}{figure.caption.41}}
\newlabel{result_8}{{\relax 5.10}{59}{Bus load vs Cost\relax }{figure.caption.41}{}}
\@writefile{toc}{\defcounter {refsection}{0}\relax }\@writefile{toc}{\contentsline {section}{\numberline {5.2}Phase II Results}{59}{section.5.2}}
\gdef \LT@i {\LT@entry 
    {1}{76.62288pt}\LT@entry 
    {1}{84.85489pt}\LT@entry 
    {1}{58.71896pt}\LT@entry 
    {1}{44.91295pt}\LT@entry 
    {1}{33.99895pt}}
\@writefile{lot}{\defcounter {refsection}{0}\relax }\@writefile{lot}{\contentsline {table}{\numberline {\relax 5.3}{\ignorespaces Valid deployments for industry-like use case}}{64}{table.5.3}}
\newlabel{table:valid_dep_big_use_case}{{\relax 5.3}{64}{Valid deployments for industry-like use case}{table.5.3}{}}
\@writefile{lot}{\defcounter {refsection}{0}\relax }\@writefile{lot}{\contentsline {table}{\numberline {\relax 5.4}{\ignorespaces Pareto deployments for industry-like use case\relax }}{65}{table.caption.42}}
\newlabel{table:pareto_dep_big_use_case}{{\relax 5.4}{65}{Pareto deployments for industry-like use case\relax }{table.caption.42}{}}
\@writefile{toc}{\defcounter {refsection}{0}\relax }\@writefile{toc}{\contentsline {chapter}{\numberline {6}Conclusion}{66}{chapter.6}}
\@writefile{lof}{\defcounter {refsection}{0}\relax }\@writefile{lof}{\addvspace {10\p@ }}
\@writefile{lot}{\defcounter {refsection}{0}\relax }\@writefile{lot}{\addvspace {10\p@ }}
\@writefile{lol}{\defcounter {refsection}{0}\relax }\@writefile{lol}{\addvspace {10\p@ }}
\@writefile{loa}{\defcounter {refsection}{0}\relax }\@writefile{loa}{\addvspace {10\p@ }}
\newlabel{chapter:conclusion}{{6}{66}{Conclusion}{chapter.6}{}}
\@writefile{toc}{\defcounter {refsection}{0}\relax }\@writefile{toc}{\contentsline {chapter}{\numberline {7}Assumptions}{67}{chapter.7}}
\@writefile{lof}{\defcounter {refsection}{0}\relax }\@writefile{lof}{\addvspace {10\p@ }}
\@writefile{lot}{\defcounter {refsection}{0}\relax }\@writefile{lot}{\addvspace {10\p@ }}
\@writefile{lol}{\defcounter {refsection}{0}\relax }\@writefile{lol}{\addvspace {10\p@ }}
\@writefile{loa}{\defcounter {refsection}{0}\relax }\@writefile{loa}{\addvspace {10\p@ }}
\newlabel{chapter:assumptions}{{7}{67}{Assumptions}{chapter.7}{}}
\citation{maxsat}
\citation{fu2006solving}
\citation{marques2007using}
\@writefile{toc}{\defcounter {refsection}{0}\relax }\@writefile{toc}{\contentsline {chapter}{\numberline {8}Future Work}{69}{chapter.8}}
\@writefile{lof}{\defcounter {refsection}{0}\relax }\@writefile{lof}{\addvspace {10\p@ }}
\@writefile{lot}{\defcounter {refsection}{0}\relax }\@writefile{lot}{\addvspace {10\p@ }}
\@writefile{lol}{\defcounter {refsection}{0}\relax }\@writefile{lol}{\addvspace {10\p@ }}
\@writefile{loa}{\defcounter {refsection}{0}\relax }\@writefile{loa}{\addvspace {10\p@ }}
\newlabel{chapter:futureimprovements}{{8}{69}{Future Work}{chapter.8}{}}
\@writefile{toc}{\defcounter {refsection}{0}\relax }\@writefile{toc}{\contentsline {chapter}{Acronyms}{70}{section*.43}}
\@writefile{toc}{\defcounter {refsection}{0}\relax }\@writefile{toc}{\contentsline {chapter}{\nonumberline List of Figures}{72}{appendix*.45}}
\@writefile{toc}{\defcounter {refsection}{0}\relax }\@writefile{toc}{\contentsline {chapter}{\nonumberline List of Tables}{73}{appendix*.46}}
\@writefile{toc}{\defcounter {refsection}{0}\relax }\@writefile{toc}{\contentsline {chapter}{\nonumberline Bibliography}{74}{appendix*.47}}
\@writefile{lof}{\defcounter {refsection}{0}\relax }\@writefile{lof}{\addvspace {10\p@ }}
\@writefile{lot}{\defcounter {refsection}{0}\relax }\@writefile{lot}{\addvspace {10\p@ }}
\@writefile{lol}{\defcounter {refsection}{0}\relax }\@writefile{lol}{\addvspace {10\p@ }}
\@writefile{loa}{\defcounter {refsection}{0}\relax }\@writefile{loa}{\addvspace {10\p@ }}
