\boolfalse {citerequest}\boolfalse {citetracker}\boolfalse {pagetracker}\boolfalse {backtracker}\relax 
\defcounter {refsection}{0}\relax 
\select@language {american}
\defcounter {refsection}{0}\relax 
\addvspace {10\p@ }
\defcounter {refsection}{0}\relax 
\addvspace {10\p@ }
\defcounter {refsection}{0}\relax 
\addvspace {10\p@ }
\defcounter {refsection}{0}\relax 
\contentsline {figure}{\numberline {\relax 2.1}{\ignorespaces Overall structure of IS0 26262 \relax }}{6}{figure.caption.3}
\defcounter {refsection}{0}\relax 
\contentsline {figure}{\numberline {\relax 2.2}{\ignorespaces Bathtub curve for failure rate \relax }}{8}{figure.caption.4}
\defcounter {refsection}{0}\relax 
\contentsline {figure}{\numberline {\relax 2.3}{\ignorespaces ISO 26262 failure modes classification \relax }}{9}{figure.caption.5}
\defcounter {refsection}{0}\relax 
\contentsline {figure}{\numberline {\relax 2.4}{\ignorespaces Directed analysis \relax }}{11}{figure.caption.6}
\defcounter {refsection}{0}\relax 
\contentsline {figure}{\numberline {\relax 2.5}{\ignorespaces A simple fault tree \relax }}{13}{figure.caption.7}
\defcounter {refsection}{0}\relax 
\contentsline {figure}{\numberline {\relax 2.6}{\ignorespaces Hardware architecture view \relax }}{14}{figure.caption.8}
\defcounter {refsection}{0}\relax 
\contentsline {figure}{\numberline {\relax 2.7}{\ignorespaces Deductive tree analysis for calculating PMHF \relax }}{17}{figure.caption.10}
\defcounter {refsection}{0}\relax 
\contentsline {figure}{\numberline {\relax 2.8}{\ignorespaces A simple component architecture \relax }}{20}{figure.caption.12}
\defcounter {refsection}{0}\relax 
\contentsline {figure}{\numberline {\relax 2.9}{\ignorespaces A simple technical architecture \relax }}{21}{figure.caption.13}
\defcounter {refsection}{0}\relax 
\contentsline {figure}{\numberline {\relax 2.10}{\ignorespaces Decision space and objective space for Min-Ex problem \relax }}{23}{figure.caption.14}
\defcounter {refsection}{0}\relax 
\addvspace {10\p@ }
\defcounter {refsection}{0}\relax 
\contentsline {figure}{\numberline {\relax 3.1}{\ignorespaces Logical architecture of ACC system \relax }}{31}{figure.caption.15}
\defcounter {refsection}{0}\relax 
\contentsline {figure}{\numberline {\relax 3.2}{\ignorespaces Technical architecture of ACC system \relax }}{32}{figure.caption.16}
\defcounter {refsection}{0}\relax 
\contentsline {figure}{\numberline {\relax 3.3}{\ignorespaces Annotation view for logical architecture of ACC system \relax }}{32}{figure.caption.17}
\defcounter {refsection}{0}\relax 
\contentsline {figure}{\numberline {\relax 3.4}{\ignorespaces Annotation view for technical architecture of ACC system \relax }}{33}{figure.caption.18}
\defcounter {refsection}{0}\relax 
\contentsline {figure}{\numberline {\relax 3.5}{\ignorespaces Constraints integration into AUTOFOCUS3 \relax }}{34}{figure.caption.19}
\defcounter {refsection}{0}\relax 
\contentsline {figure}{\numberline {\relax 3.6}{\ignorespaces UnSAT core in case of memory constraint violation \relax }}{43}{figure.caption.25}
\defcounter {refsection}{0}\relax 
\addvspace {10\p@ }
\defcounter {refsection}{0}\relax 
\contentsline {figure}{\numberline {\relax 4.1}{\ignorespaces Pareto-optimal deployment generation criteria \relax }}{50}{figure.caption.26}
\defcounter {refsection}{0}\relax 
\contentsline {figure}{\numberline {\relax 4.2}{\ignorespaces Scheduling view of Deployment 1 \relax }}{51}{figure.caption.29}
\defcounter {refsection}{0}\relax 
\addvspace {10\p@ }
\defcounter {refsection}{0}\relax 
\contentsline {figure}{\numberline {\relax 5.1}{\ignorespaces Logical architecture of Industrial-like use case\relax }}{52}{figure.caption.30}
\defcounter {refsection}{0}\relax 
\contentsline {figure}{\numberline {\relax 5.2}{\ignorespaces Technical architecture of Industrial-like use case\relax }}{54}{figure.caption.32}
\defcounter {refsection}{0}\relax 
\contentsline {figure}{\numberline {\relax 5.3}{\ignorespaces Effect of Cost Constraint (non-uniform cost) on deployment (ASIL-D BUS)\relax }}{55}{figure.caption.34}
\defcounter {refsection}{0}\relax 
\contentsline {figure}{\numberline {\relax 5.4}{\ignorespaces Effect of Cost Constraint (uniform cost) on deployment (ASIL-D BUS)\relax }}{56}{figure.caption.35}
\defcounter {refsection}{0}\relax 
\contentsline {figure}{\numberline {\relax 5.5}{\ignorespaces Effect of Cost Constraint (non-uniform cost) on deployment (ASIL-C BUS)\relax }}{56}{figure.caption.36}
\defcounter {refsection}{0}\relax 
\contentsline {figure}{\numberline {\relax 5.6}{\ignorespaces Effect of Cost Constraint (uniform cost) on deployment (ASIL-C BUS)\relax }}{56}{figure.caption.37}
\defcounter {refsection}{0}\relax 
\contentsline {figure}{\numberline {\relax 5.7}{\ignorespaces Number of nodes constraint (ASIL-D Bus)\relax }}{57}{figure.caption.38}
\defcounter {refsection}{0}\relax 
\contentsline {figure}{\numberline {\relax 5.8}{\ignorespaces Number of nodes constraint (ASIL-C Bus)\relax }}{58}{figure.caption.39}
\defcounter {refsection}{0}\relax 
\contentsline {figure}{\numberline {\relax 5.9}{\ignorespaces E2E latency vs Cost\relax }}{58}{figure.caption.40}
\defcounter {refsection}{0}\relax 
\contentsline {figure}{\numberline {\relax 5.10}{\ignorespaces Bus load vs Cost\relax }}{59}{figure.caption.41}
\defcounter {refsection}{0}\relax 
\addvspace {10\p@ }
\defcounter {refsection}{0}\relax 
\addvspace {10\p@ }
\defcounter {refsection}{0}\relax 
\addvspace {10\p@ }
\defcounter {refsection}{0}\relax 
\addvspace {10\p@ }
